{
    "version": "1.1.30.01",
    "homepage": "https://www.autohotkey.com/",
    "license": "GNU GPLv2",
    "url": "https://autohotkey.com/download/ahk.zip",
    "hash": "1096575ed518365a4f19c6d1ea86e088de8b29f9e0923aa3ca3a800487363d58",
    "checkver": {
        "url": "https://www.autohotkey.com/docs/AHKL_ChangeLog.htm",
        "re": "\"v(\\d[\\.\\d*]*)\""
    },
    "autoupdate": {
        "url": "https://autohotkey.com/download/ahk.zip"
    }
}
