{
    "homepage": "https://www.gnu.org/software/emacs/",
    "license": "GPL3",
    "version": "26.1",
    "architecture": {
        "64bit": {
            "url": [
                "http://mirrors.ustc.edu.cn/gnu/emacs/windows/emacs-26.1-x86_64.zip",
                "http://mirrors.ustc.edu.cn/gnu/emacs/windows/emacs-25-x86_64-deps.zip"
            ],
            "hash": [
                "995a9da608c8dca75c385769c1c7bf212ac39713c0d14e9af2e718363b5e8264",
                "d928e6caaeb5267f978dad0a54c90b0ea6f31ad384f43d8a6bb54c67d2b2f184"
            ]
        },
        "32bit": {
            "url": [
                "http://mirrors.ustc.edu.cn/gnu/emacs/windows/emacs-26.1-i686.zip",
                "http://mirrors.ustc.edu.cn/gnu/emacs/windows/emacs-25-i686-deps.zip"
            ],
            "hash": [
                "d8c1486304462a368911acc4628ba5433d5d6af6a25511504f324a3cd405131b",
                "37daea32cc054ae6b709c015704bdf7b7459c63b1be27cdd590d2807e50b236a"
            ]
        }
    },
    "extract_dir": ".",
    "checkver": {
        "url": "https://www.gnu.org/software/emacs/",
        "re": "Emacs ([\\d.]+)"
    },
    "autoupdate": {
        "architecture": {
            "64bit": {
                "url": "http://mirrors.ustc.edu.cn/gnu/emacs/windows/emacs-$version-x86_64.zip"
            },
            "32bit": {
                "url": "http://mirrors.ustc.edu.cn/gnu/emacs/windows/emacs-$version-i686.zip"
            }
        }
    },
    "shortcuts": [
        [
            "bin\\runemacs.exe",
            "Emacs"
        ]
    ]
}
