{
    "homepage": "http://www.voidtools.com/downloads/",
    "license": "https://www.voidtools.com/License.txt",
    "version": "1.1.0.10",
    "url": "http://www.voidtools.com/ES-1.1.0.10.zip",
    "hash": "a28e70d784ee570d0648505f58fa041a741fe3568038596a97afbc797225f561",
    "bin": "es.exe",
    "checkver": "ES-([\\d.]+).zip",
    "autoupdate": {
        "url": "http://www.voidtools.com/ES-$version.zip"
    }
}
