{
    "version": "2.27.0.windows.1",
    "homepage": "https://gitforwindows.org",
    "description": "Distributed version control system.",
    "license": "GPL-2.0-only",
    "architecture": {
        "64bit": {
            "url": "https://npm.taobao.org/mirrors/git-for-windows/v2.27.0.windows.1/PortableGit-2.27.0-64-bit.7z.exe#/dl.7z",
            "hash": "0fd2218ba73e07e5a664d06e0ce514edcd241a2de0ba29ceca123e7d36aa8f58"
        },
        "32bit": {
            "url": "https://npm.taobao.org/mirrors/git-for-windows/v2.27.0.windows.1/PortableGit-2.27.0-32-bit.7z.exe#/dl.7z",
            "hash": "8cbe1e3b57eb9d02e92cff12089454f2cf090c02958080d62e199ef8764542d3"
        }
    },
    "bin": [
        "cmd\\git.exe",
        "cmd\\gitk.exe",
        "cmd\\git-gui.exe",
        "usr\\bin\\tig.exe",
        "git-bash.exe"
    ],
    "shortcuts": [
        [
            "git-bash.exe",
            "Git Bash",
            "--cd-to-home"
        ],
        [
            "cmd\\git-gui.exe",
            "Git GUI"
        ]
    ],
    "post_install": "git config --global credential.helper manager",
    "checkver": {
        "github": "https://github.com/git-for-windows/git",
        "regex": "v([\\w.]+)/PortableGit-(?<ver>[\\d\\w.]+)-64-bit"
    },
    "env_set": {
        "GIT_INSTALL_ROOT": "$dir"
    },
    "autoupdate": {
        "architecture": {
            "64bit": {
                "url": "https://npm.taobao.org/mirrors/git-for-windows/v$version/PortableGit-$matchVer-64-bit.7z.exe#/dl.7z"
            },
            "32bit": {
                "url": "https://npm.taobao.org/mirrors/git-for-windows/v$version/PortableGit-$matchVer-32-bit.7z.exe#/dl.7z"
            }
        },
        "hash": {
            "url": "https://github.com/git-for-windows/git/releases/latest",
            "regex": "<td>$basename</td>\\s*<td>$sha256</td>"
        }
    }
}

