{
    "version": "2.45",
    "description": "Light-weight and easy-to-use password manager",
    "homepage": "https://keepass.info",
    "license": "GPL-2.0-or-later",
    "url": "https://www.fosshub.com/KeePass.html?dwl=KeePass-2.45.zip",
    "hash": "sha1:7efdc08fbc69d911a40d29fc3ca744d2763c49df",
    "pre_install": "if (Test-Path \"$persist_dir\\KeePass.config.xml\") { Copy-Item \"$persist_dir\\KeePass.config.xml\" \"$dir\" }",
    "uninstaller": {
        "script": "if (Test-Path \"$dir\\KeePass.config.xml\") { Copy-Item \"$dir\\KeePass.config.xml\" \"$persist_dir\" -Force }"
    },
    "bin": "KeePass.exe",
    "shortcuts": [
        [
            "KeePass.exe",
            "KeePass"
        ]
    ],
    "persist": [
        "Plugins",
        "Languages"
    ],
    "checkver": {
        "url": "https://keepass.info/update/version2x.txt",
        "regex": "KeePass:([\\d.]+)"
    },
    "autoupdate": {
        "url": "https://downloads.sourceforge.net/project/keepass/KeePass%20$majorVersion.x/$version/KeePass-$version.zip"
    }
}

