{
    "version": "0.0.5",
    "homepage": "https://github.com/shadowsocks/simple-obfs",
    "license": "GNU",
    "url": "https://github.com/shadowsocks/simple-obfs/releases/download/v0.0.5/obfs-local.zip",
    "hash": "5d7a04dbc82f9a8dfde1c56e1189d32418f62924284655ffec024a182a3d4d25",
    "checkver": {
        "github": "https://github.com/shadowsocks/simple-obfs"
    },
    "autoupdate": {
        "url": "https://github.com/shadowsocks/simple-obfs/releases/download/$version/obfs-local.zip"
    }
}
