{
    "homepage": "https://www.teamviewer.com",
    "version": "13.0.6447",
    "url": "https://dl.tvcdn.de/download/TeamViewer_Setup.exe",
    "installer": {
            "file": "TeamViewer_Setup.exe"
        }
}
