{
    "homepage": "https://www.tug.org/texlive/",
    "version": "2018",
    "url": "http://mirrors.ustc.edu.cn/CTAN/systems/texlive/tlnet/install-tl.zip",
    "pre_install": "
\"selected_scheme scheme-basic\nTEXDIR $env:SCOOP\\apps\\texlive\\2018\nTEXMFCONFIG $env:SCOOP\\apps\\texlive\\2018\\texmf-config\nTEXMFHOME  $env:SCOOP\\apps\\texlive\\2018\\texmf-local\nTEXMFLOCAL $env:SCOOP\\apps\\texlive\\2018\\texmf-local\nTEXMFSYSCONFIG $env:SCOOP\\apps\\texlive\\2018\\texmf-config\nTEXMFSYSVAR $env:SCOOP\\apps\\texlive\\2018\\texmf-var\nTEXMFVAR  $env:SCOOP\\apps\\texlive\\2018\\texmf-var\nbinary_win32 1\ncollection-basic 1\ncollection-latex 1\ncollection-wintools 1\ninstopt_adjustpath 0\ninstopt_adjustrepo 1\ninstopt_letter 0\ninstopt_portable 1\ninstopt_write18_restricted 1\ntlpdbopt_autobackup 1\ntlpdbopt_backupdir tlpkg/backups\ntlpdbopt_create_formats 1\ntlpdbopt_desktop_integration 0\ntlpdbopt_file_assocs 0\ntlpdbopt_generate_updmap 0\ntlpdbopt_install_docfiles 0\ntlpdbopt_install_srcfiles 0\ntlpdbopt_post_code 1\ntlpdbopt_sys_bin \/usr\/local\/bin\ntlpdbopt_sys_info \/usr\/local\/share\/info\ntlpdbopt_sys_man \/usr\/local\/share\/man\ntlpdbopt_w32_multi_user 0\" | out-file $dir\\texlive.profile -enc oem
Push-Location \"$dir\\install-tl-*\"
start-process \".\/install-tl-windows.bat\" \"-profile $dir\\texlive.profile -repository https:\/\/mirrors.tuna.tsinghua.edu.cn\/CTAN\/systems\/texlive\/tlnet\/\"  -NoNewWindow -Wait
"
}
