{
    "homepage": "https://rammichael.com/textify",
    "version": "1.6.2",
    "url": "https://rammichael.com/downloads/textify_setup.exe",
    "installer": {
        "file": "textify_setup.exe",
        "args": [
            "/S",
            "/portable",
            "/D=$dir"
        ]
    },
    "shortcuts": [
        [
            "textify.exe",
            "textify"
        ]
    ],
    "checkver": {
        "url": "https://rammichael.com/downloads/textify_setup.exe?changelog",
        "re": "v(\\d[\\.\\d*]*)"
    }
}
