{
    "homepage": "http://www.vim.org",
    "license": "Vim",
    "version": "8.1.1066",
    "architecture": {
        "32bit": {
            "url": "https://github.com/vim/vim-win32-installer/releases/download/v8.1.1066/gvim_8.1.1066_x86.zip",
            "hash": "950f43c7724788621dfa2b6a13c1f7a7578a4a1e99d5af60a7045729d965c6b8"
        },
        "64bit": {
            "url": "https://github.com/vim/vim-win32-installer/releases/download/v8.1.1066/gvim_8.1.1066_x64.zip",
            "hash": "7cb44df1d2c1f275f6f1aa4d7433cba57a8a9ea9aa4d20361ab20ddba80b9890"
        }
    },
    "extract_dir": "vim\\vim81",
    "bin": [
        "vim.exe",
        [
            "vim.exe",
            "vi"
        ],
        [
            "vim.exe",
            "ex",
            "-e"
        ],
        [
            "vim.exe",
            "view",
            "-R"
        ],
        [
            "vim.exe",
            "rvim",
            "-Z"
        ],
        [
            "vim.exe",
            "rview",
            "-RZ"
        ],
        [
            "vim.exe",
            "vimdiff",
            "-d"
        ],
        "gvim.exe",
        [
            "gvim.exe",
            "gview",
            "-R"
        ],
        [
            "gvim.exe",
            "evim",
            "-y"
        ],
        [
            "gvim.exe",
            "eview",
            "-Ry"
        ],
        [
            "gvim.exe",
            "rgvim",
            "-Z"
        ],
        [
            "gvim.exe",
            "rgview",
            "-RZ"
        ],
        [
            "gvim.exe",
            "gvimdiff",
            "-d"
        ]
    ],
    "shortcuts": [
        [
            "gvim.exe",
            "gVim"
        ]
    ],
    "post_install": [
        "if( !(test-path ~\\.vimrc) -and !(test-path ~\\_vimrc) -and !(test-path ~\\vimfiles\\vimrc) -and !(test-path $env:VIM\\_vimrc) ) {",
        "    cp \"$dir\\vimrc_example.vim\" ~\\_vimrc",
        "    \"set shell=$((gcm powershell).path)\\ -executionpolicy\\ bypass\" | out-file  ~\\_vimrc -append -encoding ascii",
        "    echo 'Default vimrc file created in ~/_vimrc, with shell set to PowerShell.'",
        "} else { echo 'Existing vimrc file found, no default configuration created' }"
    ],
    "checkver": {
        "github": "https://github.com/vim/vim-win32-installer"
    },
    "autoupdate": {
        "architecture": {
            "32bit": {
                "url": "https://github.com/vim/vim-win32-installer/releases/download/v$version/gvim_$version_x86.zip",
                "extract_dir": "vim\\vim$majorVersion$minorVersion"
            },
            "64bit": {
                "url": "https://github.com/vim/vim-win32-installer/releases/download/v$version/gvim_$version_x64.zip",
                "extract_dir": "vim\\vim$majorVersion$minorVersion"
            }
        }
    },
    "persist": "tmp",
    "suggest": {
        "vimtutor": "vimtutor"
    }
}
