{
    "homepage": "https://winscp.net",
    "license": "https://winscp.net/eng/docs/license",
    "version": "5.13",
    "url": "https://sourceforge.mirrorservice.org/w/wi/winscp/WinSCP/5.13/WinSCP-5.13-Portable.zip",
    "hash": "1a456015895ac0c151f9069f8fe0637e51e3cc426dbd31ff0569fde4309ec9d7",
    "bin": [
        "WinSCP.exe"
    ],
    "persist": "winscp.ini",
    "pre_install": "
if (!(Test-Path \"$persist_dir\\winscp.ini\")) {
    New-Item \"$dir\\winscp.ini\" -type file
    write-output \"[Configuration\\Interface]`r`nRandomSeedFile=.\\winscp.rnd\" | Out-File -encoding \"ASCII\" \"$dir\\winscp.ini\"
}
    ",
    "checkver": {
        "url": "https://winscp.net/eng/downloads.php",
        "re": "Download latest WinSCP ([\\d.]+)"
    },
    "autoupdate": {
        "url": "https://sourceforge.mirrorservice.org/w/wi/winscp/WinSCP/$version/WinSCP-$version-Portable.zip"
    },
    "shortcuts": [
        [
            "WinSCP.exe",
            "WinSCP"
        ]
    ]
}
