{
    "homepage": "https://github.com/bilguun0203/WSL-ArchLinux",
    "license": "MIT",
    "version": "1.0.3.0",
    "url": "https://github.com/bilguun0203/WSL-ArchLinux/releases/download/v1.0.3.0/ArchLinux-Appx_1.0.3.0_x64.zip",
    "hash": "268d3e5140c42db6767b779ac3cabf4ea60011383c4389a50f80b92f4ff3a1d5",
    "installer": {
        "file": "Add-AppDevPackage.ps1"
    },
    "checkver": "github",
    "autoupdate": {
        "url": "https://github.com/bilguun0203/WSL-ArchLinux/releases/download/v$version/ArchLinux-Appx_$version_x64.zip"
    }
}
